{"count":7617,"next":"https://api.octopus.energy/v1/electricity-meter-points/2000024502271/meters/21J0088726/consumption/?page=2","previous":null,"results":[{"consumption":0.072,"interval_start":"2022-11-06T23:30:00Z","interval_end":"2022-11-07T00:00:00Z"},{"consumption":0.041,"interval_start":"2022-11-06T23:00:00Z","interval_end":"2022-11-06T23:30:00Z"},{"consumption":0.081,"interval_start":"2022-11-06T22:30:00Z","interval_end":"2022-11-06T23:00:00Z"},{"consumption":0.149,"interval_start":"2022-11-06T22:00:00Z","interval_end":"2022-11-06T22:30:00Z"},{"consumption":0.153,"interval_start":"2022-11-06T21:30:00Z","interval_end":"2022-11-06T22:00:00Z"},{"consumption":0.16,"interval_start":"2022-11-06T21:00:00Z","interval_end":"2022-11-06T21:30:00Z"},{"consumption":0.155,"interval_start":"2022-11-06T20:30:00Z","interval_end":"2022-11-06T21:00:00Z"},{"consumption":0.165,"interval_start":"2022-11-06T20:00:00Z","interval_end":"2022-11-06T20:30:00Z"},{"consumption":0.34,"interval_start":"2022-11-06T19:30:00Z","interval_end":"2022-11-06T20:00:00Z"},{"consumption":0.211,"interval_start":"2022-11-06T19:00:00Z","interval_end":"2022-11-06T19:30:00Z"},{"consumption":0.205,"interval_start":"2022-11-06T18:30:00Z","interval_end":"2022-11-06T19:00:00Z"},{"consumption":0.9,"interval_start":"2022-11-06T18:00:00Z","interval_end":"2022-11-06T18:30:00Z"},{"consumption":0.71,"interval_start":"2022-11-06T17:30:00Z","interval_end":"2022-11-06T18:00:00Z"},{"consumption":0.944,"interval_start":"2022-11-06T17:00:00Z","interval_end":"2022-11-06T17:30:00Z"},{"consumption":0.106,"interval_start":"2022-11-06T16:30:00Z","interval_end":"2022-11-06T17:00:00Z"},{"consumption":0.187,"interval_start":"2022-11-06T16:00:00Z","interval_end":"2022-11-06T16:30:00Z"},{"consumption":1.228,"interval_start":"2022-11-06T15:30:00Z","interval_end":"2022-11-06T16:00:00Z"},{"consumption":0.507,"interval_start":"2022-11-06T15:00:00Z","interval_end":"2022-11-06T15:30:00Z"},{"consumption":0.139,"interval_start":"2022-11-06T14:30:00Z","interval_end":"2022-11-06T15:00:00Z"},{"consumption":0.849,"interval_start":"2022-11-06T14:00:00Z","interval_end":"2022-11-06T14:30:00Z"},{"consumption":0.135,"interval_start":"2022-11-06T13:30:00Z","interval_end":"2022-11-06T14:00:00Z"},{"consumption":0.16,"interval_start":"2022-11-06T13:00:00Z","interval_end":"2022-11-06T13:30:00Z"},{"consumption":0.136,"interval_start":"2022-11-06T12:30:00Z","interval_end":"2022-11-06T13:00:00Z"},{"consumption":0.118,"interval_start":"2022-11-06T12:00:00Z","interval_end":"2022-11-06T12:30:00Z"},{"consumption":0.112,"interval_start":"2022-11-06T11:30:00Z","interval_end":"2022-11-06T12:00:00Z"},{"consumption":0.154,"interval_start":"2022-11-06T11:00:00Z","interval_end":"2022-11-06T11:30:00Z"},{"consumption":0.246,"interval_start":"2022-11-06T10:30:00Z","interval_end":"2022-11-06T11:00:00Z"},{"consumption":0.183,"interval_start":"2022-11-06T10:00:00Z","interval_end":"2022-11-06T10:30:00Z"},{"consumption":0.125,"interval_start":"2022-11-06T09:30:00Z","interval_end":"2022-11-06T10:00:00Z"},{"consumption":0.185,"interval_start":"2022-11-06T09:00:00Z","interval_end":"2022-11-06T09:30:00Z"},{"consumption":0.154,"interval_start":"2022-11-06T08:30:00Z","interval_end":"2022-11-06T09:00:00Z"},{"consumption":0.243,"interval_start":"2022-11-06T08:00:00Z","interval_end":"2022-11-06T08:30:00Z"},{"consumption":0.137,"interval_start":"2022-11-06T07:30:00Z","interval_end":"2022-11-06T08:00:00Z"},{"consumption":0.314,"interval_start":"2022-11-06T07:00:00Z","interval_end":"2022-11-06T07:30:00Z"},{"consumption":0.109,"interval_start":"2022-11-06T06:30:00Z","interval_end":"2022-11-06T07:00:00Z"},{"consumption":0.109,"interval_start":"2022-11-06T06:00:00Z","interval_end":"2022-11-06T06:30:00Z"},{"consumption":0.078,"interval_start":"2022-11-06T05:30:00Z","interval_end":"2022-11-06T06:00:00Z"},{"consumption":0.065,"interval_start":"2022-11-06T05:00:00Z","interval_end":"2022-11-06T05:30:00Z"},{"consumption":0.066,"interval_start":"2022-11-06T04:30:00Z","interval_end":"2022-11-06T05:00:00Z"},{"consumption":0.048,"interval_start":"2022-11-06T04:00:00Z","interval_end":"2022-11-06T04:30:00Z"},{"consumption":0.065,"interval_start":"2022-11-06T03:30:00Z","interval_end":"2022-11-06T04:00:00Z"},{"consumption":0.091,"interval_start":"2022-11-06T03:00:00Z","interval_end":"2022-11-06T03:30:00Z"},{"consumption":0.058,"interval_start":"2022-11-06T02:30:00Z","interval_end":"2022-11-06T03:00:00Z"},{"consumption":0.045,"interval_start":"2022-11-06T02:00:00Z","interval_end":"2022-11-06T02:30:00Z"},{"consumption":0.073,"interval_start":"2022-11-06T01:30:00Z","interval_end":"2022-11-06T02:00:00Z"},{"consumption":0.064,"interval_start":"2022-11-06T01:00:00Z","interval_end":"2022-11-06T01:30:00Z"},{"consumption":0.079,"interval_start":"2022-11-06T00:30:00Z","interval_end":"2022-11-06T01:00:00Z"},{"consumption":0.039,"interval_start":"2022-11-06T00:00:00Z","interval_end":"2022-11-06T00:30:00Z"},{"consumption":0.074,"interval_start":"2022-11-05T23:30:00Z","interval_end":"2022-11-06T00:00:00Z"},{"consumption":0.087,"interval_start":"2022-11-05T23:00:00Z","interval_end":"2022-11-05T23:30:00Z"},{"consumption":0.22,"interval_start":"2022-11-05T22:30:00Z","interval_end":"2022-11-05T23:00:00Z"},{"consumption":0.157,"interval_start":"2022-11-05T22:00:00Z","interval_end":"2022-11-05T22:30:00Z"},{"consumption":0.153,"interval_start":"2022-11-05T21:30:00Z","interval_end":"2022-11-05T22:00:00Z"},{"consumption":0.172,"interval_start":"2022-11-05T21:00:00Z","interval_end":"2022-11-05T21:30:00Z"},{"consumption":0.144,"interval_start":"2022-11-05T20:30:00Z","interval_end":"2022-11-05T21:00:00Z"},{"consumption":0.137,"interval_start":"2022-11-05T20:00:00Z","interval_end":"2022-11-05T20:30:00Z"},{"consumption":0.608,"interval_start":"2022-11-05T19:30:00Z","interval_end":"2022-11-05T20:00:00Z"},{"consumption":0.143,"interval_start":"2022-11-05T19:00:00Z","interval_end":"2022-11-05T19:30:00Z"},{"consumption":0.162,"interval_start":"2022-11-05T18:30:00Z","interval_end":"2022-11-05T19:00:00Z"},{"consumption":0.139,"interval_start":"2022-11-05T18:00:00Z","interval_end":"2022-11-05T18:30:00Z"},{"consumption":0.164,"interval_start":"2022-11-05T17:30:00Z","interval_end":"2022-11-05T18:00:00Z"},{"consumption":0.173,"interval_start":"2022-11-05T17:00:00Z","interval_end":"2022-11-05T17:30:00Z"},{"consumption":0.101,"interval_start":"2022-11-05T16:30:00Z","interval_end":"2022-11-05T17:00:00Z"},{"consumption":0.138,"interval_start":"2022-11-05T16:00:00Z","interval_end":"2022-11-05T16:30:00Z"},{"consumption":0.144,"interval_start":"2022-11-05T15:30:00Z","interval_end":"2022-11-05T16:00:00Z"},{"consumption":0.242,"interval_start":"2022-11-05T15:00:00Z","interval_end":"2022-11-05T15:30:00Z"},{"consumption":0.115,"interval_start":"2022-11-05T14:30:00Z","interval_end":"2022-11-05T15:00:00Z"},{"consumption":0.286,"interval_start":"2022-11-05T14:00:00Z","interval_end":"2022-11-05T14:30:00Z"},{"consumption":0.187,"interval_start":"2022-11-05T13:30:00Z","interval_end":"2022-11-05T14:00:00Z"},{"consumption":0.865,"interval_start":"2022-11-05T13:00:00Z","interval_end":"2022-11-05T13:30:00Z"},{"consumption":0.162,"interval_start":"2022-11-05T12:30:00Z","interval_end":"2022-11-05T13:00:00Z"},{"consumption":0.196,"interval_start":"2022-11-05T12:00:00Z","interval_end":"2022-11-05T12:30:00Z"},{"consumption":0.17,"interval_start":"2022-11-05T11:30:00Z","interval_end":"2022-11-05T12:00:00Z"},{"consumption":0.365,"interval_start":"2022-11-05T11:00:00Z","interval_end":"2022-11-05T11:30:00Z"},{"consumption":0.391,"interval_start":"2022-11-05T10:30:00Z","interval_end":"2022-11-05T11:00:00Z"},{"consumption":0.138,"interval_start":"2022-11-05T10:00:00Z","interval_end":"2022-11-05T10:30:00Z"},{"consumption":0.122,"interval_start":"2022-11-05T09:30:00Z","interval_end":"2022-11-05T10:00:00Z"},{"consumption":0.105,"interval_start":"2022-11-05T09:00:00Z","interval_end":"2022-11-05T09:30:00Z"},{"consumption":0.352,"interval_start":"2022-11-05T08:30:00Z","interval_end":"2022-11-05T09:00:00Z"},{"consumption":0.106,"interval_start":"2022-11-05T08:00:00Z","interval_end":"2022-11-05T08:30:00Z"},{"consumption":0.069,"interval_start":"2022-11-05T07:30:00Z","interval_end":"2022-11-05T08:00:00Z"},{"consumption":0.1,"interval_start":"2022-11-05T07:00:00Z","interval_end":"2022-11-05T07:30:00Z"},{"consumption":0.107,"interval_start":"2022-11-05T06:30:00Z","interval_end":"2022-11-05T07:00:00Z"},{"consumption":0.071,"interval_start":"2022-11-05T06:00:00Z","interval_end":"2022-11-05T06:30:00Z"},{"consumption":0.088,"interval_start":"2022-11-05T05:30:00Z","interval_end":"2022-11-05T06:00:00Z"},{"consumption":0.116,"interval_start":"2022-11-05T05:00:00Z","interval_end":"2022-11-05T05:30:00Z"},{"consumption":0.059,"interval_start":"2022-11-05T04:30:00Z","interval_end":"2022-11-05T05:00:00Z"},{"consumption":0.078,"interval_start":"2022-11-05T04:00:00Z","interval_end":"2022-11-05T04:30:00Z"},{"consumption":0.092,"interval_start":"2022-11-05T03:30:00Z","interval_end":"2022-11-05T04:00:00Z"},{"consumption":0.037,"interval_start":"2022-11-05T03:00:00Z","interval_end":"2022-11-05T03:30:00Z"},{"consumption":0.05,"interval_start":"2022-11-05T02:30:00Z","interval_end":"2022-11-05T03:00:00Z"},{"consumption":0.079,"interval_start":"2022-11-05T02:00:00Z","interval_end":"2022-11-05T02:30:00Z"},{"consumption":0.048,"interval_start":"2022-11-05T01:30:00Z","interval_end":"2022-11-05T02:00:00Z"},{"consumption":0.054,"interval_start":"2022-11-05T01:00:00Z","interval_end":"2022-11-05T01:30:00Z"},{"consumption":0.063,"interval_start":"2022-11-05T00:30:00Z","interval_end":"2022-11-05T01:00:00Z"},{"consumption":0.063,"interval_start":"2022-11-05T00:00:00Z","interval_end":"2022-11-05T00:30:00Z"},{"consumption":0.063,"interval_start":"2022-11-04T23:30:00Z","interval_end":"2022-11-05T00:00:00Z"},{"consumption":0.048,"interval_start":"2022-11-04T23:00:00Z","interval_end":"2022-11-04T23:30:00Z"},{"consumption":0.083,"interval_start":"2022-11-04T22:30:00Z","interval_end":"2022-11-04T23:00:00Z"},{"consumption":0.088,"interval_start":"2022-11-04T22:00:00Z","interval_end":"2022-11-04T22:30:00Z"}]}